<?xml version="1.0" encoding="iso-8859-1"?>
<!-- Generator: Adobe Illustrator 22.1.0, SVG Export Plug-In . SVG Version: 6.00 Build 0)  -->
<svg version="1.1" xmlns="http://www.w3.org/2000/svg" xmlns:xlink="http://www.w3.org/1999/xlink" x="0px" y="0px"
	 viewBox="0 0 2850 1800" style="enable-background:new 0 0 2850 1800;" xml:space="preserve">
<g id="layer6">
	<polygon style="fill:#DB2E3C;" points="0,1068.58 51.987,1012.458 78.423,1033.504 190.038,953.997 228.222,992.581 
		250.741,972.704 345.712,1094.303 382.917,1074.427 454.39,1124.703 571.88,1039.35 588.525,1054.55 639.437,1015.966 
		718.743,1076.765 807.793,1017.487 895.957,1077.934 1040.861,1012.458 1097.648,1070.919 1127.02,1061.565 1235.699,1157.441 
		1286.611,1131.718 1438.369,1218.241 1521.591,1145.749 1546.068,1153.934 1632.227,1097.811 1732.094,1120.026 1820.211,1037.011 
		1831.96,1044.027 1874.061,987.904 1928.889,1045.196 1970.011,1028.827 1991.551,1042.858 2045.4,991.412 2117.852,1086.119 
		2146.246,1063.904 2173.66,1074.427 2203.032,1051.042 2301.92,1135.226 2371.435,1046.365 2458.573,1002.266 2555.502,1116.519 
		2605.436,1069.75 2668.097,1086.119 2734.674,1040.519 2849.268,1166.533 2849.268,1570.841 0,1570.841 	"/>
	<polygon style="fill:#CC2330;" points="2668.097,1086.119 2714.186,1093.516 2730.488,1069.75 2740.556,1081.633 
		2734.674,1040.519 	"/>
	<polygon style="fill:#CC2330;" points="2555.502,1116.519 2613.021,1179.401 2606.309,1131.914 2616.857,1136.459 
		2605.436,1069.75 	"/>
	<polygon style="fill:#CC2330;" points="2301.927,1135.236 2476.159,1294.474 2454.725,1154.308 2473.019,1166.543 
		2446.675,1071.981 2463.506,1086.296 2458.58,1002.276 2371.441,1046.375 	"/>
	<polygon style="fill:#CC2330;" points="2064.755,1192.244 2232.406,1377.7 2251.818,1420.631 2335.643,1420.631 2251.818,1322.906 
			"/>
	<polygon style="fill:#CC2330;" points="2118.584,1083.648 2144.322,1118.784 2153.087,1101.216 2146.977,1061.433 	"/>
	<polygon style="fill:#CC2330;" points="1992.282,1040.387 2034.048,1069.5 2046.132,988.941 	"/>
	<polygon style="fill:#CC2330;" points="1929.621,1042.725 1975.228,1092.36 1970.743,1026.356 	"/>
	<polygon style="fill:#CC2330;" points="1832.692,1041.556 1874.602,1073.653 1874.792,985.433 	"/>
	<polygon style="fill:#CC2330;" points="1820.943,1034.541 1839.164,1186.079 1814.701,1186.079 1867.358,1423.102 
		1706.29,1423.102 1763.152,1140.709 1732.825,1117.555 	"/>
	<polygon style="fill:#CC2330;" points="1546.8,1151.463 1634.159,1186.079 1632.959,1095.34 	"/>
	<polygon style="fill:#CC2330;" points="1439.1,1215.77 1527.679,1268.556 1522.323,1143.278 	"/>
	<polygon style="fill:#CC2330;" points="1236.43,1154.97 1289.155,1199.109 1287.343,1129.248 	"/>
	<polygon style="fill:#CC2330;" points="1098.38,1068.448 1141.063,1110.89 1127.752,1059.094 	"/>
	<polygon style="fill:#CC2330;" points="1041.593,1009.987 1041.593,1170.052 1022.823,1164.062 1033.934,1246.805 
		1005.413,1257.919 1033.934,1420.631 879.402,1366.171 973.543,1148.707 896.689,1075.464 	"/>
	<polygon style="fill:#CC2330;" points="719.475,1074.294 787.33,1129.017 794.333,1069.989 808.494,1069.989 808.525,1015.016 	"/>
	<polygon style="fill:#CC2330;" points="589.256,1052.079 650.934,1108.317 643.342,1059.145 652.832,1065.19 640.169,1013.495 	"/>
	<polygon style="fill:#CC2330;" points="455.122,1122.232 551.534,1190.621 551.534,1126.69 564.056,1135.411 560.926,1087.808 
		571.57,1094.164 572.612,1036.879 	"/>
	<polygon style="fill:#CC2330;" points="346.444,1091.833 379.993,1135.411 383.649,1071.956 	"/>
	<polygon style="fill:#CC2330;" points="228.954,990.11 256.434,1019.968 251.473,970.234 	"/>
	<polygon style="fill:#CC2330;" points="52.719,1009.987 57.385,1050.438 42.821,1053.015 57.385,1090.377 42.821,1087.156 
		61.701,1159.303 0.732,1119.036 0.732,1066.11 	"/>
	<polygon style="fill:#CC2330;" points="190.77,951.526 182.531,1011.143 162.033,1011.143 167.966,1072.979 146.39,1058.812 
		171.742,1119.036 79.154,1031.033 	"/>
</g>
<g id="Layer_1">
</g>
</svg>
